011182327122006
50118233320334274233001257163742271220061C 0000446800000100376
50118233289934274233030605163743271220061C 0000445820000100362
50118233320334274233001257163744271220061C 0000446540000100376
50118233289934274233030605163745271220061C 0000446030000100362
50118233312733069766010063163746271220061C 0000445820000100378
50118233289003766945000107163747271220061C 0000128780000100360
50118233320434274233001257163748271220061C 0000465340000100377
50118233288604930779000103163749271220061C 0000445820000100367
50118233320434274233001257163750271220061C 0000465630000100377
50118233289103766945000107163751271220061C 0000100120000100361
50118233320434274233001257163752271220061C 0000465630000100377
50118233320334274233001257163753271220061C 0000446540000100376
50118233320334274233001257163754271220061C 0000446540000100376
50118233320434274233001257163755271220061C 0000465340000100377
50118233320434274233001257163756271220061C 0000465340000100377
50118233312901136598003048163757271220061C 0000446540000100374
50118233288604930779000103163765271220061C 0000435640000100367
50118230000002337275000140163766271220061C 0000446310000100383
50118233288802431337000260163767271220061C 0000297020000100365
50118232865002337275000140163768271220061C 0000178260000100081
50118233325102337275000140163769271220061C 0000164890000100383
50118233289934274233030605163770271220061C 0000446580000100362
50118233288802431337000260163771271220061C 0000444820000100365
50118233325102337275000140163772271220061C 0000345970000100383
50118233306733453598026866163773271220061C 0000294200000100369
50118233323733453598026866163774271220061C 0000140730000100381
50118233306933453598026866163787271220061C 0000107370000100368
50118233323933453598026866163788271220061C 0000337930000100382
50118233325102337275000140163789271220061C 0000345970000100383
50118233306833453598019304163792271220061C 0000390750000100370
50118233323833453598019304163793271220061C 0000044400000100380
50118233325102337275000140163794271220061C 0000347130000100383
50118233288802431337000260163795271220061C 0000491820000100365
50118233325102337275000140163796271220061C 0000446030000100383
50118233312733069766010063163797271220061C 0000435420000100378
50118233323633453598019304163798271220061C 0000436120000100379
50118233312733069766010063163799271220061C 0000297020000100378
50118233288604930779000103163805271220061C 0000296870000100367
50118233289103766945000107163806271220061C 0000297360000100361
50118233312602368373000226163807271220061C 0000296870000100384
50118233325102337275000140163809271220061C 0000436390000100383
50118233289003766945000107163810271220061C 0000148430000100360
50118233325102337275000140163812271220061C 0000436120000100383
50118233288802431337000260163815281220061C 0000027750000100365
50118233312402431337000260163816281220061C 0000417790000100385
50118233323833453598019304163817281220061C 0000445540000100380
50118233325102337275000140163818281220061C 0000437100000100383
50118233323833453598019304163820281220061C 0000445540000100380
50118233256223314594001000163821281220061C 0000356430000100359
50118233256223314594001000163822281220061C 0000297020000100359
50118233289103766945000107163823281220061C 0000298010000100361
50118233323933453598026866163824281220061C 0000445540000100382
50118233323733453598026866163825281220061C 0000447030000100381
50118233320434274233001257163826281220061C 0000346360000100377
50118233325102337275000140163829281220061C 0000447030000100383
50118233289003766945000107163830281220061C 0000296870000100360
50118233323633453598019304163831281220061C 0000456950000100379
50118233323633453598019304163832281220061C 0000457230000100379
50118233320434274233001257163834281220061C 0000445310000100377
50118233325102337275000140163836281220061C 0000437100000100383
50118233320434274233001257163837281220061C 0000445310000100377
50118233256223314594001000163848281220061C 0000297020000100359
50118233256223314594001000163849281220061C 0000296700000100359
50118233256223314594001000163850281220061C 0000395390000100359
50118233320434274233001257163851281220061C 0000445310000100377
50118233312733069766010063163859281220061C 0000376670000100378
50118233312733069766010063163860281220061C 0000058470000100386
50118233256223314594001000163861281220061C 0000296870000100359
50118233323933453598026866163865281220061C 0000445310000100382
50118233323733453598026866163866281220061C 0000446540000100381
50118233312402431337000260163867281220061C 0000376890000100385
50118233312402431337000260163868281220061C 0000068150000100385
50118233325102337275000140163869281220061C 0000436610000100383
50118233312402431337000260163870281220061C 0000434680000100385
50118233312402431337000260163881291220061C 0000445820000100385
50118233312402431337000260163882291220061C 0000492370000100385
50118233320434274233001257163883291220061C 0000346740000100377
50118233312402431337000260163884291220061C 0000297210000100385
50118233312402431337000260163885291220061C 0000445540000100385
50118233320434274233001257163886291220061C 0000445540000100377
50118233256223314594001000163887291220061C 0000294050000100359
50118233338533453598026866163888291220061C 0000446800000100387
50118233338533453598026866163889291220061C 0000446800000100387
50118233338933453598019304163890291220061C 0000445540000100390
50118233338733453598019304163891291220061C 0000446800000100389
50118233338733453598019304163892291220061C 0000436610000100389
50118233312402431337000260163899291220061C 0000444560000100385
50118233338633453598026866163901291220061C 0000435150000100388
50118233320434274233001257163930020120071C 0000445820000100377
50118233320434274233001257163931020120071C 0000445540000100377
50118233343833453598026866163932020120071C 0000375450000100395
50118233338533453598026866163933020120071C 0000072080000100387
50118233343833453598026866163934020120071C 0000447290000100395
50118233312402431337000260163935020120071C 0000296370000100385
50118233312402431337000260163936020120071C 0000445540000100385
50118233343633453598019304163937020120071C 0000457230000100393
50118233343633453598019304163938020120071C 0000457230000100393
50118233320434274233001257163945020120071C 0000465630000100377
50118233320434274233001257163951020120071C 0000445540000100377
50118233289103766945000107163956020120071C 0000149100000100361
50118233343633453598019304163959020120071C 0000457230000100393
50118233338933453598019304163960020120071C 0000445540000100390
50118233320334274233001257163961020120071C 0000447030000100376
50118233289934274233030605163968020120071C 0000465630000100362
50118233312402431337000260163992030120071C 0000492620000100385
50118233338633453598026866163993030120071C 0000436030000100388
50118233344033453598026866163994030120071C 0000010000000100396
50118233338933453598019304163995030120071C 0000173380000100390
50118233343933453598019304163996030120071C 0000263000000100394
50118233289934274233030605163997030120071C 0000446030000100362
50118233312402431337000260163998030120071C 0000446030000100385
50118233344033453598026866163999030120071C 0000446030000100396
50118233343933453598019304164000030120071C 0000446030000100394
50118233319401136598002157164001030120071C 0000346920000100373
50118233312602368373000226164002030120071C 0000297360000100384
50118233320334274233001257164008030120071C 0000446310000100376
50118233320334274233001257164009030120071C 0000297360000100376
50118233341133069766010063164010030120071C 0000348900000100391
50118233341133069766010063164013030120071C 0000445540000100391
50118233320334274233001257164014030120071C 0000446030000100376
50118233353903279954000335164015030120071C 0000446030000100397
50118233320334274233001257164016030120071C 0000465850000100376
50118233320334274233001257164017030120071C 0000445820000100376
50118233341133069766010063164018030120071C 0000366550000100391
50118233341133069766010063164021030120071C 0000346150000100391
50118233348105470445000159164022030120071C 0000297020000100398
50118233344033453598026866164041040120071C 0000446030000100396
50118233343933453598019304164042040120071C 0000250960000100394
50118233348633453598019304164043040120071C 0000195350000100402
50118233343633453598019304164044040120071C 0000285510000100393
50118233348433453598019304164045040120071C 0000171200000100403
50118233341133069766010063164046040120071C 0000347310000100391
50118233343833453598026866164047040120071C 0000377250000100395
50118233348533453598026866164048040120071C 0000115920000100404
50118233348533453598026866164049040120071C 0000446540000100404
50118233344033453598026866164050040120071C 0000057910000100396
50118233348733453598026866164051040120071C 0000239290000100405
50118233348433453598019304164052040120071C 0000456460000100403
50118233320434274233001257164053040120071C 0000413190000100377
50118233352134274233001257164055040120071C 0000052670000100400
50118233289934274233030605164056040120071C 0000354010000100362
50118233352334274233030605164057040120071C 0000111850000100401
50118233352334274233030605164058040120071C 0000465850000100401
50118233352134274233001257164059040120071C 0000465850000100400
50118233352134274233001257164062040120071C 0000465850000100400
50118233289103766945000107164063040120071C 0000099780000100361
50118233352334274233030605164064040120071C 0000465630000100401
50118233349202284585000144164065040120071C 0000446030000100406
50118233352334274233030605164070040120071C 0000445820000100401
50118230000002859452000230164071040120071C 0000010000000100009
50118233352334274233030605164072040120071C 0000297210000100401
50118233289103766945000107164073040120071C 0000296210000100361
50118233352334274233030605164074040120071C 0000296210000100401
50118233356733337122020233164075040120071C 0000465630000100407
50118233356733337122020233164076040120071C 0000445820000100407
50118233341233069766017742164077050120071C 0000366970000100392
50118233341233069766017742164078050120071C 0000347130000100392
50118233356733337122020233164079050120071C 0000446030000100407
50118233348733453598026866164081050120071C 0000466150000100405
50118233348733453598026866164084050120071C 0000446030000100405
50118233352334274233030605164088050120071C 0000465850000100401
50118233349202284585000144164098050120071C 0000446310000100406
50118233353903279954000335164101050120071C 0000446540000100397
50118233356103766945000107164102050120071C 0000148520000100410
50118233352334274233030605164106050120071C 0000296550000100401
50118233349202284585000144164111050120071C 0000442800000100406
50118233356103766945000107164112050120071C 0000297210000100410
50118233348533453598026866164114050120071C 0000037540000100404
50118233357333453598026866164115050120071C 0000407500000100408
50118233348633453598019304164116050120071C 0000445820000100402
50118233352334274233030605164117050120071C 0000297210000100401
50118233289103766945000107164118050120071C 0000049340000100361
50118233356103766945000107164119050120071C 0000246840000100410
50118233320334274233001257164134060120071C 0000446800000100376
50118233352134274233001257164135060120071C 0000466150000100400
50118233320334274233001257164136060120071C 0000446540000100376
50118233320334274233001257164137060120071C 0000446540000100376
50118233320334274233001257164138060120071C 0000446540000100376
50118233357233453598019304164146060120071C 0000492920000100409
50118233352334274233030605164158060120071C 0000297360000100401
50118233289103766945000107164159060120071C 0000100060000100361
50118233289103766945000107164160060120071C 0000128930000100361
50118233289103766945000107164161080120071C 0000149100000100361
50118233357333453598026866164165080120071C 0000042480000100408
50118233360433453598026866164166080120071C 0000413450000100413
50118233352334274233030605164167080120071C 0000446030000100401
50118233348633453598019304164177080120071C 0000318820000100402
50118233360533453598019304164178080120071C 0000127210000100414
50118233356103766945000107164179080120071C 0000148680000100410
50118233360633453598026866164182080120071C 0000455720000100412
50118233256223314594001000164183080120071C 0000346360000100359
50118233320334274233001257164184080120071C 0000465110000100376
99118230194000000006829882
