CONTATO;EMAIL;IDIOMA;
ADELMO MARQUES;diretoria@larcopetroleo.com.br;1;
ADENAISIO DANTAS;adenaisio@hotmail.com;1;
ADONIAS CRUZ;adonias.cruz@grupofarias.com.br;1;
ADRIANA O. SCHVEITZER;adriana.schveitzer@inscribe.com.br;1;
ADRIANA SAMPAIO WILTENBURG;adriana@magnumpetroleo.com.br;1;
ADRIANO BARBOSA;adrianogerais@hotmail.com;1;
ADRIANO FIORANI ARENA;adriano.arena@damata.ind.br;1;
ADRIANO NUNES;adriano@ciapetro.com.br;1;
ADRIANO SUSSUMI MIYAUTI;miyauti@itochu.com.br;1;
ADRIANO VIEIRA LOPES;faturamento@usinasaopaulo.ind.br;1;
ADRIANO VILAR;adriano.vilar@mansugar.com.br;1;
AFONSO GEOVANE;afonso@liderpetro.com.br;1;
AGRIPINO GOMES DE SOUZA;cruzeiro@grupocruzeiro.com.br;1;
AILTON DIAS;ailton.dias.sifaeg@terra.com.br;1;
AILTON SACRAMENTO;ailton.sacramento@mansugar.com.br;1;
AKSHITA BHATT;akshita.bhatt@glencoreindia.com;1;
ALBERTO CARMONA BOSCH;alberto.carmona@bioenergy.abengoa.com;1;
ALBERTO PEREZ;aperez@totalcombustiveis.com.br;1;
ALCEU PEREIRA LIMA NETO;neto@centroalcool.com.br;1;
ALCIBIADES PRADO DANTAS;alcebiades@petrox.com.br;1;
ALDONSO PALACIO JUNIOR;aldonsojr@spdistribuidora.com.br;1;
ALESSANDRO GOMES;sandro@petrobahia.com.br;1;
ALESSANDRO PERES PEREIRA;alessandro.pereira@petrosul.com.br;1;
ALEXANDRE FERNANDES;alexandre@inovathi.com.br;1;
ALEXANDRE RAMOS;alexandre@transenergy.com.br;1;
ALEXANDRE SAVIGNANI;asavignani@aguarani.com.br;1;
ALEXANDRE ZEBULUN ADES;azades@copersucar.com.br;1;
ALFRED SZWARC;alfred@unica.com.br;1;
ALINE ASSUMPCAO PORTO;alineporto@grycamp.com.br;1;
ALINE GABRIELA ALVES DA SILVA;scanedo@ubppetroleo.com.br;1;
ALINE LEON;3391.aline@bradesco.com.br;1;
ALLAN SOUZA;allan.souza@ale.com.br;1;
ALOISIO NUNES DE ALMEIDA;naloisio@copersucar.com.br;1;
ALUISIO RUDIGER;aluisio@charrua.com.br;1;
ALVAIR BERNARDO;alvair@euroseg.com.br;1;
ALVARO FONSECA DE OLIVEIRA NET;alvaro@petrox.com.br;1;
AMARILDO ARAUJO;amarildo@primaveradiesel.com.br;1;
AMARILDO CORREIA;amarildo.correia@ale.com.br;1;
AMILTON BARBOSA RAMOS;barbosa@ciapetro.com.br;1;
AMIT BRANDARI;amit.bhandari@biourja.com;1;
ANA CAROLINA FERRAZ;acferraz@czarnikow.com;1;
ANA CRISTINA DE OLIVEIRA LEITE;ana.leite@bp.com;1;
ANA FERREIRA;ana.ferreira@usfrutal.com.br;1;
ANA LUCIA VITAL;nalu.vita@magnumpetroleo.com.br;1;
ANA PAULA CARNEIRO;jardins@postnet.com.br;1;
ANDERS FREDRIKSSON;andrers.fredriksson@sekab.com;1;
ANDERSON ALVES PAIVA;anderson@sunriseonline.com.br;1;
ANDERSON MARCELO BARBOSA;ambpira@hotmail.com;1;
ANDERSON NUNES;tecnicavisuais@ngr.com.br;1;
ANDRE LUIZ MAFFEI GUIDINI;andre@clealco.com.br;1;
ANDRE LUIZ RODRIGUES;andre@abeni.com.br;1;
ANDRE LUIZ RODRIGUES SALES;andre@usinapanorama.com.br;1;
ANDRE MOURA;andre.moura@bp.com;1;
ANDRE OLIVEIRA;andreoliveira@soll.com.br;1;
ANDRE PASSOS;andrericardo@buranello.com.br;1;
ANDRE RAPOSO;araposo@lansingtradegroup.com;1;
ANDREA CRISTINA CASSIANO GUIMA;andrea.cassiano@cmaa.ind.br;1;
ANDREA FERNANDES;andrea.fernandes@ale.com.br;1;
ANDREIA NARA;faturamentogoias@redesoldp.com.br;1;
ANDREIA SILVA;export@usinagoianesia.com.br;1;
ANDRESSA RODRIGUES;arodrigues@vrecbsa.com.br;1;
ANDY DUFF;andy.duff@rabobank.com;1;
ANDY SOSTEK;andrew.y.sostek@conocophillips.com;1;
ANGELA BARBOSA DANTAS;angela@petrozara.com.br;1;
ANGELICA LIMA;angelica.lima@usfrutal.com.br;1;
ANGELO BAZAN;usinabazan@usinabazan.com.br;1;
ANSELMO LOPES RODRIGUES;ap2x@ap2x.com.br;1;
ANTHONY ALENCAR;anthonyalencar@federalpetroleo.com.br;1;
ANTONIO ADAUTO BATISTA DE SOUZA;antonio@grupoistoe.com.br;1;
ANTONIO ALVES DA COSTA;antonio@modernatransportes.com.br;1;
ANTONIO CABRERA;cabrera@grupocabrera.com.br;1;
ANTONIO GOMES DE MELO;antonio@petrogoias.com.br;1;
ANTONIO MARCOS DE SOUZA NOGUEI;transls.transportes@hotmail.com;1;
ANTONIO NAVES;logistica.transls@hotmail.com;1;
ANTONIO REGINALDO ZAMPIERI;matsudacotacoes@rodomatsuda.com.br;1;
ANTONIO REINALDO FERNANDES;titoarf@hotmail.com;1;
ANTONIO SIMOES;antonio.simoes@raizen.com;1;
ANTONIO STEFANI NETO;rodatransporte@terra.com.br;1;
ANTONIO TONIELLO;diretoria@copercana.com.br;1;
APARECIDO MARCELO;aparecido.marcelo@bunge.com;1;
ARNALDO ROTENBERG;arotenberg@petrobras.com;1;
ARNOLDO HAMMERSCHMILTD;potencial@potencialpetroleo.com.br;1;
ARTHUR SCARPATO;ascarpato@certisign.com.br;1;
ASHOK;ashokkumar@dscl.com;1;
ATSUSHI KATAYAMA;at.katayama@mitsui.com;1;
AUGUSTO LISBOA;augusto@soll.com.br;1;
AXEL TORNQUIST FILHO;axelpdl@hotmail.com;1;
BARBARA A. YOUNG;bayoung@sunocoinc.com;1;
BAS ROSCH;bas.rosch@lyondell.com;1;
BEATRIZ PUPO;beatriz@kingsman.com;1;
BENEDITO CARLO CLETO BACH;compras@vinagrebelmont.com.br;1;
BENEDITO RENATO PINTO;carolina_bucino@terra.com.br;1;
BENEDITO WINTER;benedito@agricopel.com.br;1;
BERNARD HENNIES;bhennies@adm.com;1;
BJOERN ROELING;broeling@helmusa.com;1;
BOBBY WAID;bwaid@charterbrokerage.net;1;
BORIS HINZ;boris.hinz@cropenergies.de;1;
BRADFORD ROBERTS;broberts@ifc.org;1;
BRIAN HELM;helmbh1@bp.com;1;
BRUNA RAMALHO;brunaramalho@transac.com.br;1;
BRUNO CESAR GONCALVES DE OLIVEIRA;brunocesar777@hotmail.com;1;
BRUNO SILVA;bruno.silva@oiltanking.com;1;
BRUNO SQUARIZE;transls@hotmail.com;1;
CAMILA GARCIA BALDIN;cbaldin@aguarani.com.br;1;
CARLITO PAULO VIEIRA;carlitovieira@yahoo.com.br;1;
CARLOS ALBERTO BENEZ;carlos@transriologistica.com.br;1;
CARLOS ALBERTO DE OLIVEIRA;caoliveira@aguarani.com.br;1;
CARLOS ALBERTO GASPAR;carlos.gaspar@transjordano.com.br;1;
CARLOS ALBERTO R. MIRANDA;carlos.miranda@tononbioenergia.com.br;1;
CARLOS ALEXANDRE DE ARRUDA;etanolsp@hotmail.com;1;
CARLOS BOISEAUX;carlos.boiseaux@sgs.com;1;
CARLOS EDUARDO MOLEIRINHO;cmoleirinho@copersucar.com.br;1;
CARLOS FRANCISCO MAGALHAES;cfm@magafer.com.br;1;
CARLOS FRANCO;carlos.franco@ldcom.com;1;
CARLOS FREDERICO FRANCO;carlos.franco@ldcommodities.com;1;
CARLOS HABIB CHARTER;postodatorre.com@terra.com.br;1;
CARLOS MARQUES;carlos.marques@concremat.com.br;1;
CARLOS POLETINI;cpoletini@mfattore.com.br;1;
CARLOS RAMIRO;carlos.ramiro@transjordano.com.br;1;
CARLOS RITTSCHER;carlos.rittscher@terra.com.br;1;
CARMEN NEVES;vendas@lipconfeccoes.com.br;1;
CAROLINA ALBACETE;carolina.albacete@euroseg.com.br;1;
CAROLINE MIDGLEY;cmidgley@lmc.co.uk;1;
CASSIO BELLINTANI IPLINSKY;cassio@rioverde.ind.br;1;
CASSIO KURATOMI;cassio@exto.com.br;1;
CATIA ROCHA;catiarocha@iqv.com.br;1;
CELIO SOARES;celio.soares@usinacoruripe.com.br;1;
CELSO CAMPOS MATHIAS JUNIOR;ccmatias@copersucar.com.br;1;
CELSO OLIVEIRA;celso@met.com.br;1;
CELSO RIZZO;celso.rizzo@alcoolferreira.com.br;1;
CHRISTIAN BOMB;cbomb@sucden.ch;1;
CHRISTIAN VITRAC;christian.vitrac@bureauveritas.com;1;
CHRISTOPH JACOBY;christoph.jacoby@greenergy.com;1;
CHRISTOPHER DUMAS;christopher.dumas@edfman.com;1;
CHUCK HOFFHEISER;choffhe@citgo.com;1;
CIRLAINE FERNANDES;cirlaine@sadig.com;1;
CLAUDIA CAVALCANTE;financeiro@petrogoias.com.br;1;
CLAUDIA PERIM HARO;claudia.vilareal@terra.com.br;1;
CLAUDIA VIVIANE UBISSES ZEN;claudia.zen@raizen.com;1;
CLAUDINEI PINTO;claudinei.pinto@hotmail.com;1;
CLAUDIO AFONSO JUNIOR;juniorpetromais@hotmail.com;1;
CLAUDIO FERNANDO DAUDT;claudio@cattaliniterminais.com.br;1;
CLAUDIO JOSE BIASON;cbiason@kpmg.com.br;1;
CLAUDIO PETRILLO;claudio@geomapas.com.br;1;
CLAUDIU COVRIG;ccovrig@sucden.ch;1;
CLEBER PRADO STREMOTE;cleber.prado@rcv.com.br;1;
CLECIO SANTANA;clecio@petrobahia.com.br;1;
CLEIA VIEIRA CAMPOS;cleia@officercorp.com.br;1;
CLEITON TOSTA FERREIRA;cleiton@usinapanorama.com.br;1;
CRISTHIANE MARIA FERRARI;cristiane@deccache.com.br;1;
CRISTIANE SOUSA GUIMARAES;maxcombustiveis@hotmail.com;1;
CRISTIANO SOARES;cristiano.soares@sgs.com;1;
CRISTIELLE RUIS;cristielle.aparecida@usinaguariroba.com.br;1;
CRISTINA JUNQUEIRA MEIRELLES;crismeirelles73@hotmail.com;1;
CRISTINA TOLOTI;cristina.toloti@transriologistica.com.br;1;
DAIANE PASSOS;daiane@soll.com.br;1;
DALMIR MARQUES;dalmir@wdcombustiveis.com.br;1;
DANA ECKELMANN;d.eckelmann@helmag.com;1;
DANIEL BUCKLEY;chems@poleshipping.ch;1;
DANIEL FLAVIO GOZZI;sac@aguabonita.com.br;1;
DANIEL GADOTTI;daniel@igadotti.com.br;1;
DANIEL GIANFRATTI;danielgianfratti@uol.com.br;1;
DANIEL MARINO DE TOLEDO;dmtoledo@kpmg.com.br;1;
DANIEL PEREIRA DE AMORIM;daniel.amorim@grupofarias.com.br;1;
DANIEL ROCKENBACH;daniel.rockenbach@rumologistica.com.br;1;
DANILO PAVONI;danilo.pavoni@renukabrasil.com.br;1;
DAVID BOARELLI;david@ruff.com.br;1;
DAVID REES;david.rees@greenergy.com;1;
DEBORA LEITE DOS SANTOS;debora@intercont.com.br;1;
DEISE TERAN FERNANDES;sinaliza@sinalizaseguros.com.br;1;
DENIS GONCALVES;denis@kingsman.com;1;
DENISE PEDROZA CAMELO;recepcao@simoncomercial.com.br;1;
DENISE ROBLES;robles@uol.com.br;1;
DENNIS HALLARON;dhallaron@chevron.com;1;
DIBO ATEM;dibo@atem.com.br;1;
DIEGO HENRIQUE S. SILVA;diego.silva@ironmountain.com.b;1;
DIEGO TIRINTAN NOVAES;diego@usinadiana.com.br;1;
DINESH SARDANA;dineshsardana@dscl.com;1;
DIOGO ABRANTES;diogo.abrantes@trtec.com.br;1;
DIOVANY ZAGO MENDONCA;diovany@usinafloresta.com.br;1;
DIRCEU PIGA JUNIOR;dirceu.piga@bunge.com;1;
DIULIANA MARINHO;fatpan@usinapanorama.com.br;1;
DIVINO FRANCA FERREIRA;compras@simoncomercial.com.br;1;
DOLIANA CANDIDO;doliana.sifaeg@terra.com.br;1;
DOUGLAS LEACH;doug_leach@kindermorgan.com;1;
DOUGLAS NEWMAN;douglas.newman@usitc.gov;1;
DOUGLAS NUNES;douglas_nunes@cieesp.org.br;1;
DOUGLAS S. BETTS;douglasbetts@chevron.com;1;
DOUGLAS SANTOS BARROS;douglas@usinafloresta.com.br;1;
EDCLEIA CRISPIN;edicleia@magnumpetroleo.com.br;1;
EDER VIEITO SILVA;evsilva@copersucar.com.br;1;
EDI CARLOS DE CASTRO;edi.castro@expr.com.br;1;
EDILSON COSTA;edilson.costa@tononbioenergia.com.br;1;
EDMIR KIYOTO MIWA;edmir@intercont.com.br;1;
EDMUNDO COELHO BARBOSA;edmundobarbosa@sindalcool.com.br;1;
EDNA DOS REIS;ednnamarques@hotmail.com;1;
EDSON JOSE DUTRA;diretoria@tabocao.com.br;1;
EDSON SANTANA;edson.santana@ultracargo.com.br;1;
EDSON TOSHIO MIWA;edson@intercont.com.br;1;
EDUARDO AHOUAGI;eduardo_ahouagi@cargill.com;1;
EDUARDO ARAUJO;eduardo@petroserra.com;1;
EDUARDO BALDINO;eduardo@inscribe.com.br;1;
EDUARDO CASTRO PEREIRA NUNES;eduardo.castro@ldcom.com;1;
EDUARDO DA COSTA CARVALHO;ecarvalho@sucden.com.br;1;
EDUARDO HENRIQUE ROSENTHAL;ehrosenthal@petrobras.com.br;1;
EDUARDO SIA;esia@sucden.com.br;1;
EDUARDO V. FERNANDES;eduardo.fernandes@grupopaodeacucar.com.br;1;
ELAINE FRANCISCO MENDONCA;elaine.mendonca@usinaouroeste.com.br;1;
ELAINE MARTINHS;elaine@dislub.com;1;
ELIANE FERREIRA;elianegandara@hotmail.com;1;
ELIMARA APARECIDA ASSAD SALLUM;elimara@unica.com.br;1;
ELINE LIMA;eline@atem.com.br;1;
ELIS SANTOS;elis.santos@datagro.com.br;1;
ELISEU BATISTA;ebatista@valedoparana.com.br;1;
EMANUEL SILVA;emanoel@petrox.com.br;1;
EMERSON LAURINDO;sulpetro@netuno.com.br;1;
EMMANUEL DESPLECHIN;edesplechin@unica.com.br;1;
ERIC SANTOS;efhsantos@infinitybio.com.br;1;
ERICA ANTUNASSI;erica@valedoverdao.com.br;1;
ERICA SEZARLAINE;contabilidade_02@usinagoianesia.com.br;1;
ERMELINDA MOREIRA;ermelinda.moreira@deag.com.br;1;
ERNESTO COUTINHO;ernesto.coutinho@gunvortrade.ch;1;
ERONIDES NUNES;nunestaftransportes@uol.com.br;1;
ESMEIR SARRO;distribuidoraisa@hotmail.com;1;
ESTER GARCIA;ester.garcia@digitalway.com.br;1;
EVERTON NASCIMENTO;esilva@totalcombustiveis.com.br;1;
EZIO MACEDO;junior@transpveronese.com.br;1;
FABIANA OLIVEIRA;fabiana.oliveira@ficpetroleo.com.br;1;
FABIANA PESSOA;pessoa.fabi@gmail.com;1;
FABIO BASILE MANDALERI;fbm@vitol.com;1;
FABIO JENNER DE FARIA;ffaria@adecoagro.com;1;
FABIO SILVA RAMOS;fabio@intercont.com.br;1;
FABIO SOARES SOUZA;fabiosoares@pimex.com.br;1;
FABRICIO ATAIDE;fabricio.ataide@deltatrading.com.br;1;
FAUSTO CAPPELLANO NETO;fausto.neto@rcv.com.br;1;
FELIPE MARANHAO;felipe@esssa.com.br;1;
FELIPE SEIBEL;felipeseibel@vistadivina.com;1;
FERNANDA ARRUDA;fernanda.arruda@citi.com;1;
FERNANDA BORGES;fernanda.borges@raizen.com;1;
FERNANDA TAVARES;fernanda_tavares@cargill.com;1;
FERNANDO ALVES PERES;fernando@valedoverdao.com.br;1;
FERNANDO BELLEZA HAIEK;fabelleza@copersucar.com.br;1;
FERNANDO GIOVANONI;fernando_paulinia@hotmail.com;1;
FERNANDO GUERRA JUNIOR;fernando@petroviatemape.com.br;1;
FERNANDO GUISELINI;fernando@ciapetro.com.br;1;
FERNANDO HAYOSHI;fhayoshi@copersucar.com.br;1;
FERNANDO JANTCHC;fernando.jantchc@deltatrading.com.br;1;
FERNANDO LOPES CHAGAS;fernando@horadistribuidora.com.br;1;
FERNANDO LUMINATO;fernando@intercont.com.br;1;
FERNANDO PLACITES;fernando@euroseg.com.br;1;
FERNANDO VIEIRA;fernando.vieira@btgpactual.com;1;
FILIPE AUGUSTO COSTA DOS SANTOS;filipe.santos@intertek.com;1;
FILIPE VALENTE;filipe.valente@nsgethanol.com;1;
FLAVIA ALVIM;flaviaalvim@federalpetroleo.com.br;1;
FLAVIO MARCELO;flavio.financeiro@arogas.com.br;1;
FLAVIO MENESES;flavio.meneses@ultracargo.com.br;1;
FRANCESCO CUPELLO;acupello@acupello.com.br;1;
FRANCISCO CARLOS XAVIER DA ROCHA & EQUIPE;francisco@fcgestao.com.br;1;
FRANCISCO ILDIMAR DE LAVOR;francisco@uniaocorretora.com.br;1;
FRANCISCO RODRIGUES SANTANA;santana.sr@hotmail.com;1;
FRANCISCO TONON NETO;f_tonon@terra.com.br;1;
FRANCISCO VASSELLUCCI FILHO;chico@4see.com.br;1;
FREDERICO BARCELAR GONTIJO;gontifb@ipiranga.com.br;1;
FREDERICO MEDEIROS;frederico@acolpetroleo.com.br;1;
FREEMAN SHAHEEN;fshaheen@chevron.com;1;
G. CHANDRA SHEKHAR;gchandra@thehindu.co.in;1;
GABRIEL CARVALHO;gabriel.carvalho@bunge.com;1;
GABRIEL NASCIMENTO;gabriel.nascimento@ale.com.br;1;
GABRIELA FERNANDA CALORI;gabriela@magnumpetroleo.com.br;1;
GABRIELA SANDIS VALIM;grabriela.valim@euroseg.com.br;1;
GABRIELA SETTEN;gsetten@copersucar.com.br;1;
GARY BEERS;beersgw1@bp.com;1;
GENESIO MASSONI;gmassoni@tsp.ind.br;1;
GENIS SOARES FRAGOSO;gfragoso@uoldiveo.com;1;
GEORGE DE RESENDE IPLINSKY;george@rioverde.ind.br;1;
GERALDO CAIXETA;geraldo@transac.com.br;1;
GERSON BEHR;behr@lexmaris.co.uk;1;
GIANCARLO COZZA;stockmat.gian@uol.com.br;1;
GIANCARLO PASA;giancarlo@postotulio.com.br;1;
GILBERTO CLOVIS MERIGO JUNIOR;junior@maxsulcombustiveis.com.br;1;
GILBERTO RAPHAEL MASCIOLI JUNIOR;info@cleanenergybrazil.com;1;
GILSON MARTINS DE OLIVEIRA;gilson@ciapetro.com.br;1;
GISELE ANDRADE;gisele@dwtrabalho.com.br;1;
GISELE C. GASULLA;giselli.gasulla@itau-unibanco.com.br;1;
GISELE MOREIRA DE CARVALHO;goiania@rodmatsuda.com.br;1;
GLAUCIA TELLES BENVEGNU;glaucia@benvegnu.com.br;1;
GLAUCIO WILSON GOMES DE OLIVEIRA;glaucio@adnbr.com.br;1;
GLAUCO SOBRAL VAZ;glauco.vaz@petrobras.com.br;1;
GLEISON SANTIAGO;logistica@tabocao.com.br;1;
GRACIELA MEDEIROS BOTTINO;analistafiscal@usinasaopaulo.ind.br;1;
GRAZIELE ALVES DA SILVA;gabi@valedoverdao.com.br;1;
GUILHERME FOGACA;gui@jfogaca.com.br;1;
GUILHERME GAMBA;guilherme_gamba@cargill.com;1;
GUSTAVO CABRAL;gustavocabral.bmetanol@gmail.com;1;
HALLEY HENARES NETO;halley.henares@henares.com.br;1;
HAMILTON BEDUSCHI;hamilton.beduschi@hotmail.com;1;
HANS JORG FUCHSLOCH;hansjf@petrobras.com.br;1;
HELENA XAVIER AIZO;lenaizo@hotmail.com;1;
HELIO STEFANI;rodatransporte@terra.com.br;1;
HELVIO REBESCHINI;helvio.rebeschini@raizen.com;1;
HENRIQUE JOAQUIM CRUZ FILHO;henrique@energeticaserranopolis.com.br;1;
HENRIQUE RISSETO;henrique.risseto@bunge.com;1;
HENRIQUE SOUZA;henrique.souza@armajaro.com;1;
HERILO BARTHOLO DE BRITTO;herilo@britto.adv.br;1;
HERMES GUERRA;hermes@rzdpetroleo.com.br;1;
HERMINIO OMETTO NETTO;faleconosco@usj.com.br;1;
HIDELBRANDO PINHO;hildebrandopinho@yahoo.com.br;1;
HOMERO CORREA DE ARRUDA FILHO;regina.paula@saomartinho.ind.br;1;
HUGO MORAES ASSIS;matsudacotacoes@rodomatsuda.com.br;1;
HUMBERTO CARRILHO;humberto.carrilho@dislubequador.com.br;1;
IAN KERSEY;ian.kersey@innovene.com;1;
IDIOMAR ZANELLA;idiomar@mazp.com.br;1;
IEDA MARTINS;iedamartins@federalpetroleo.com.br;1;
IGOR ANGELOCO ZANGUETIN;igor.zanghetin@raizen.com;1;
IGOR NASCIMENTO;transportadora@tabocao.com.br;1;
IGOR SISCINA MAGALHAES;igor.magalhaes@larcopetroleo.com.br;1;
INDIOMAR DE PAIVA;mario.cecon@ficpetroleo.com.br;1;
INGO KALDER;ingo_kalder@sjcbioenergia.com.br;1;
IRIO KAWASIMA;irio@brastrafo.com.br;1;
IRISLEI LUIZ DE SOUZA;expedicao@usinasaopaulo.ind.br;1;
IRISLENE FELIPE DA SILVA;ifsilva@goiasa.com.br;1;
ISNAE DE ALMEIDA;ialmeida@sucden.com.br;1;
IVANILTON GOMES DE BRITO;transdoisrios@hotmail.com;1;
IVANILTON GOMES DE BRITO JUNIOR;transdoisrios@hotmail.com;1;
J. BRENT BAKER;jbrentbaker@geonetholdings.com;1;
JACINTO VELOSO;jacinto@transpveronese.com;1;
JACK HUTCHISON;jack.hutchison@oiltanking.com;1;
JAMES MISTER;james_mister@cargill.com;1;
JAMILLE GUERRA;jamille.guerra@ale.com.br;1;
JANAINA ROMANO;janaina@timbrasilbusiness.com;1;
JANEIDE FRANCO;janeide.franco@grupofarias.com.br;1;
JAQUELINE CUNHA;jcunha@feraenergia.com.br;1;
JAQUELINE GONCALVES BORGES;jgborges@goiasa.com.br;1;
JAQUELINE MORAES;ninhaosa@hotmail.com;1;
JASON SAGEBIEL;jasons@fcstone.com;1;
JASON SEARL;jasonsearl@poetep.com;1;
JASON WOJAHN;jwojahn@rpmgllc.com;1;
JAVIER AVELLO SORIANO;tradholinternacional@tradholint.com;1;
JEAN CARLOS NOGUEIRA;faturamento@valedoverdao.com.br;1;
JEAN CLAUDE CORNU;j.c.cornu@kolmargroup.com;1;
JEFFREY JACOBS;jeffrey.jacobs@chevron.com;1;
JEFFREY TUITE;jeffrey.tuite@bunge.com;1;
JEREMY AUSTIN;jeremy-austin@sucden.com.br;1;
JIM MELO;jim_lelio@kindermorgan.com;1;
JOANA ANDRADE SOARES;joana.andrade@petrobahia.com.br;1;
JOANA GARBOGGINI;joana.garboggini@deltatrading.com.br;1;
JOAO B. DA CRUZ FILHO;joao@reciclar.org.br;1;
JOAO CARLOS SILVA PAIVA;jc.paiva@denusa.com.br;1;
JOAO EDUARDO FLORENTINO;joaoeduardo@energeticaserranopolis.com.br;1;
JOAO GUIMARAES;joaobessa@transjordano.com.br;1;
JOAO JOSE CHRISTOL DREYS;joaojose@adnbr.com.br;1;
JOAO NUNES;joao.nunes@incinitybio.com.br;1;
JOAO PAULO BORDIN;joao.bordin@trtec.com.br;1;
JOAO PAULO C. TEIXEIRA;joao.teixeira@citi.com;1;
JOAO PAULO HADDAD;joaopaulo.haddad@deltatrading.com.br;1;
JOAO RICARDO DUCATTI;ducatti@rdrconsultores.com.br;1;
JOAO ROBERTO RIBEIRO DE CASTRO;joals@msn.com;1;
JOEL SILVA;joel.silva@ale.com.br;1;
JOHN COURTIS;jcourtis@arb.ca.gov;1;
JOHN LITTERIO;john.litterio@chsinc.com;1;
JOHN MAHON;john_mahon@kindermorgan.com;1;
JON DOGGETT;corninfo@ncga.com;1;
JONATHAN KINGSMAN;jonathan@kingsman.com;1;
JONATHAN WILLIAMS;jwilliams@czarnikow.com;1;
JORDANO BESSA;jordano@transjordano.com.br;1;
JORGE A. BEVILACQUA;jb@sadig.com;1;
JORGE DE OLIVEIRA RODRIGUES;jorgeorodrigues@petrobras.com.br;1;
JOSE ANTONIO TONON;jat.bocaina@uol.com.br;1;
JOSE APARECIDO MIGUEL;contabil@aguabonita.com.br;1;
JOSE ARIDIO DE SA MARTINS;martins@hagros.com.br;1;
JOSE CAMARGO HERNANDES;diretoria@resan.com.br;1;
JOSE CARLOS ALBERTO CAROZELLI;jccarozelli@kpmg.com.br;1;
JOSE CARLOS DA SILVA;jcarlos@petroluz.com.br;1;
JOSE DAMASCENO CORDEIRO FILHO;josefilhod@hotmail.com;1;
JOSE EDUARDO CURI;joseeduardo@rederatinho.com.br;1;
JOSE EMILIO MASONE;jemilio@bioagencia.com.br;1;
JOSE FERES FILHO;j.feres@uol.com.br;1;
JOSE H. SANT ANNA;santanna@diretrizconsultores.com.br;1;
JOSE JOAQUIM F. DE MEDEIROS FILHO;kim@usinalaguna.com.br;1;
JOSE LEONIDAS DOS SANTOS;jlorg.contabil@hotmail.com;1;
JOSE LUIZ NEVES VIANA;nevesjlv@sabtrading.com.br;1;
JOSE MIGUEL JIMENEZ;jjimenez@verticalna.com;1;
JOSE PEDRO ANDRADE;jpandrade@pitaa.com.br;1;
JOSE ROBERTO LEAL;j.roberto@delpozo.com.br;1;
JOSELANGELA SANTOS;vaelitransportes@gmail.com;1;
JOSEPH M. RUBBO;jor@vitol.com;1;
JOSH BAILEY;joshb@eco-energyinc.com;1;
JOSHUA BAILER;jbailer@sucden.us;1;
JUAN FERNANDO VALDIVIESO;juan@ad-ep.com;1;
JULIANA CARVALHO;juliana.carvalho@bunge.com;1;
JULIANA MAIA;juliana@maiagraf.com.br;1;
JULIO CESAR ABDO;juliocesar@minax.com.br;1;
JULIO CESAR ADORNO;jcadorno@copersucar.com.br;1;
JULIO FONTANA NETO;julio.fontana@rumologistica.com.br;1;
JULIO HERRERA;jherrera@pantaleon.com;1;
JULIO SERODIO;julio.serodio@infinitybio.com.br;1;
JULIO VERGUEIRO;idclog@idclog.com.br;1;
KARLA DECKERT;karladeckert@thisisnoble.com;1;
KATIA MARIA ALVES BARATA;katia@iqv.com.br;1;
KEITH WILSON;kwilson@astraoil.com;1;
KEN MORGAN;klmo@chevron.com;1;
KIMBERLY CAPPS;kshadid@citgo.com;1;
KLEBER GUSTAVO ANDRIOLI;kleber.andrioli@macquarie.com;1;
KLEBER TADEU DE SOUZA;kleber@kptecnologia.com.br;1;
KONSTANTIN STOYANOV, CFA;stoyanov@discoverygcf.com;1;
LAILTON SOARES ALVES XISTO;lxisto@aguarani.com.br;1;
LAURO MONTEIRO DE PAULA;lpaula@timbrasil.com.br;1;
LEANDRO CRUVINEL;adm@aeroprest.com.br;1;
LEANDRO JABUR OTON LEITE;lljg@ipiranga.com.br;1;
LEONARDO BALDUINO;leonardo@riobrancopetroleo.com.br;1;
LEONARDO CARNEIRO VIEIRA SANTO;trans_carneiro@hotmail.com;1;
LEONARDO FEIJO DA ROSA;leonardo@latinars.com.br;1;
LEONARDO JAYME DE ARIMATEA;leonardo.jayme@denusa.com.br;1;
LEONARDO SEVERINO;leonardoseverino@federalpetroleo.com.br;1;
LEONARDO SILVA;leonardo@bracorretora.com.br;1;
LES MILLMAN;les.millman@motivaent.com;1;
LESIA PETRILLO;lesia@geomapas.com.br;1;
LIDIANNE CAROLINA MARQUES BARBOSA;lidiannecarolina@federalpetroleo.com.br;1;
LIVIA KOSAKA;livia.kosaka@datagro.com.br;1;
LORENA DO CARMOS;loredocarmo@hotmail.com;1;
LORENA FERREIRA;lsantana@totalcombustiveis.com.br;1;
LORRANE PEREIRA;lorrainepereira@federalpetroleo.com.br;1;
LOURDES JACINTO;lourdes@intercont.com.br;1;
LUCAS GONZAGA;lgonzaga@icatuseguros.com.br;1;
LUCIA KASSAI;lkassai@bloomberg.net;1;
LUCIANA BRITO NUNES;jlempresacontabil@gmail.com;1;
LUCIANA CABRAL;lucianacabral@liderpetro.com.br;1;
LUCIANA FERNANDES;luciana@inovathi.com.br;1;
LUCIANA PAIVA;luciana@uagro.com.br;1;
LUCIANA SOUZA;luciana@grupocruzeiro.com.br;1;
LUCIANO FIORAVANTE;luciano@agromen.com.br;1;
LUCIANO JAIME PEIXOTO;luciano.jaime.sifaeg@terra.com.br;1;
LUCIANO RICARDO DOS SANTOS;r-a-telecomunica@hotmail.com;1;
LUCIANO SANHES FERNANDES;luciano.fernandes@cerradinho.com.br;1;
LUCIANO SGORDON;lccsgorlon@copersucar.com.br;1;
LUCIENE BASSANI LEOPOLDINO;lucienebassani@hotmail.com;1;
LUDMILLA MACEDO;ludmillamacedo@federalpetroleo.com.br;1;
LUIS FERNANDO DE SOUZA;luiz.caiapo@uol.com.br;1;
LUIZ CARLOS ALMEIDA;luizcarlos@dislub.com;1;
LUIZ CARLOS DE ANDRADE;andradeluizcarlos@terra.com.br;1;
LUIZ CARLOS RODRIGUES MORGADO;luiz.morgado@terra.com.br;1;
LUIZ EDUARDO ANDRADE;ledu@geonetholdings.com;1;
LUIZ FERNANDO RIBEIRO;luizfernando@ciapetro.com.br;1;
LUIZ GONZAGA BERTELLI;lgbertelli@fiesp.org.br;1;
LUIZ LIMA;luizlima@thisisnoble.com;1;
LUIZ MARCIO DA SILVA GARCIA;luiz.marcio@petrobras.com.br;1;
LUIZ PAIM;paim@transpveronese.com.br;1;
LUIZ PAULO FACIOLI;luiz.facioli@henares.com.br;1;
LUIZ SILVESTRE COELHO;luiz.silvestre@mansugar.com.br;1;
MAIQUI OLIVEIRA;maiqui.oliveira@usinaguariroba.com.br;1;
MAIRTON ALVES;mairton.alves@spcombustiveis.com;1;
MANOEL CARLOS AZEVEDO ORTOLAN;diretoria@canaoeste.com.br;1;
MANOEL VICENTE BERTONE;manoel.bertone@benriratings.com;1;
MARCELIO PEIXOTO;marcelio@agiletransp.com.br;1;
MARCELLO PAES BARRETO;paesbarreto@highway.com.br;1;
MARCELO AMARAL REGIO;marcelo.regio@latinars.com.br;1;
MARCELO BARBOSA;compras@cerba.com.br;1;
MARCELO DE FREITAS BARBOSA;marcelo.moraes@denusa.com.br;1;
MARCELO GUERRA;mguerra@sindacucar.com.br;1;
MARCELO MANCINI STELLA;marcelo.mancini@odebrecht.com;1;
MARCELO MENEZES DE OLIVEIRA;postocontinental85@gmail.com;1;
MARCELO MORAES;marcelo.moraes@denusa.com.br;1;
MARCELO OLIVEIRA;mol@olamnet.com;1;
MARCELO RODRIGUES DE OLIVEIRA;marcelo@ciapetro.com.br;1;
MARCELO ROQUE;marcelo.roque@raizen.com;1;
MARCELO WIRGUES;marcelo@usinacacu.com.br;1;
MARCIO ARAUJO NUNES;marcio@gynconect.com.br;1;
MARCIO DUTRA GONCALVES;mdg@vitol.com;1;
MARCIO MATURANO;maturanoadv@terra.com.br;1;
MARCO ANTONIO QUEIROZ DOURADO;marcoantonio@energeticaserranopolis.com.br;1;
MARCO ANTONIO REGO;marco.rego@adm.com;1;
MARCO AURELIO MARQUES LOPES;marco.marques@tononbioenergia.com.br;1;
MARCO OROZIMBO FREER ROSAS;marco@cpatrading.com.br;1;
MARCOS ESCOBAR;marcose@fcstone.com;1;
MARCOS FERRACINI;marcopetrogold@hotmail.com;1;
MARCOS JOSE BEZERRA MENEZES;mm@totalcombustiveis.com.br;1;
MARCOS LUIZ L. MOLINARO;mmolinaro@czarnikow.com;1;
MARCOS MACHADO;marcos.machado@biourja.com;1;
MARCOS MAGNO;marcos@biodiesels.com.br;1;
MARCOS MEDEIROS MARCHESE;marcos@usinalaguna.com.br;1;
MARCOS NOGUEIRA;marcos.nogueira@fcstone.com;1;
MARCOS RODRIGUES SOUZA;marcos.rodrigues@deag.com.br;1;
MARDONIO GONCALVES SILVA;mardonios@terra.com.br;1;
MARIA APARECIDA GOMES;cida@intercont.com.br;1;
MARIA ARAUJO;visuais@ngr.com.br;1;
MARIA CANDIDA DE SOUZA BESSA;candida@transjordano.com.br;1;
MARIA DO SOCORRO;socorro@ciapetro.com.br;1;
MARIA LUIZA BARBOSA;;1;
MARIA SALLETTE C. DE QUADROS;maria.sallette@sgs.com;1;
MARIANA MAIA;mariana@maiagraf.com.br;1;
MARIO BARONI JUNIOR;mario@intercont.com.br;1;
MARIO NARDELLI;marioalbertobr@gmail.com;1;
MARJORIE LOPES;mlopes@overseas.com.br;1;
MARK ROMAINE;mromaine@globap.com;1;
MARK STREATER;m.streater@kolmar-us.com;1;
MARLI DE FATIMA MENEGHIN;marli.execucao@arenapetroleo.com;1;
MARTA ALVES;marta.alves@bvmf.com.br;1;
MARTA CRISTINA MAJORT MAISTRO;marjotta@cca.ufscar.br;1;
MASSAH FUJIMOTO;massah@ihoshi.com.br;1;
MATHEUS HENRIQUE DE ANDRADE GIACULI;matheus@procana.com.br;1;
MATHEUS PRADO OLANDINI;matheus.olandini@raizen.com;1;
MATT SNYDER;msnyder@globalp.com;1;
MAURICIO CARLOS GONCALVES;transportadoratropical@ig.com.br;1;
MAURICIO DEUBONS;mdelbons@continentalcombustiveis.com.br;1;
MAURICIO ROMANO;mauricioromano@dinagro.com.br;1;
MAURICIO SACRAMENTO;mauriciosacramento@thisisnoble.com;1;
MAURICIO ZANNIN;mauricio.zannin@oiltanking.com;1;
MICHAEL KINNINGER;michael.kinninger@bp.com;1;
MICHAEL WARREN;mwarren@hartenergy.com;1;
MICHEL MCDOUGALL;michael.mcdougall@newedge.com;1;
MICHELE MOREIRA SOARES;desenvolvimento@zeal.com.br;1;
MICHELE SCHEFLER;michele@charrua.com.br;1;
MICHELLE SILVA;michelle.silva@netglobe.com.br;1;
MICHIEL HINGST;hingst@verticaluk.com;1;
MIGUEL ANTONIO VON RECHBERG LINS;miguell@besinvestimento.com.br;1;
MIKE BLACKFORD;mikeb@fcstone.com;1;
MIKE INHETVIN;cinco@latinbusiness.de;1;
MIKHAIL SNOBKOV;mikhail_snobkov@cargill.com;1;
MINTON BUNNELL;mbunnel@citgo.com;1;
MIQUEIAS ATEM;miqueias@atem.com.br;1;
MIRIAN CHAVES ANDRADE;mchaves@sucden.com.br;1;
MISCENO ROSSI;presidencia@usinasaopaulo.ind.br;1;
MISLENE TENORIO SANTOS LIMA;mislene@dwtrabalho.com.br;1;
MOHAMMAD KIMEL ASI;williamslineup@williams.com.br;1;
MURILO COUTINHO;murilo.coutinho@ficpetroleo.com.br;1;
MURILO SERAFIM DA COSTA;murilo@horadistribuidora.com.br;1;
NAIARA TOLEDO DA SILVA;naiara.toledo@usmoema.com.br;1;
NANDAN YALGI;nandan@renukasugars.com;1;
NAOHISA KAWAKAMI;kawakami@itochu.com.br;1;
NARCISO FERNANDO BERTHOLDI;narciso@usj.com.br;1;
NATALIA KALITYNSKA;natalia.kalitynska@vopak.com;1;
NATANE RIBEIRO;nataneribeiro@brancoperes.com.br;1;
NATHALIA MARTINS;analistacomercial@aguabonita.com.br;1;
NATHALIE DE VOS BURCHART;nathalie.devosburchart@biourja.com;1;
NAYANE DANIELLE DOS SANTOS;comercial@dcoil.com.br;1;
NELSON DONADEL;donadel@dcoil.com.br;1;
NEWTON ANTONIO CHUCRI;newton.chucri@damata.ind.br;1;
NEWTON TADEU ROCHA;newtontr@hotmail.com;1;
NIGEL DURHAM;durhamn@sugar-assoc.co.uk;1;
NILDO AUGUSTO DA SILVA;novauniaomg@uol.com.br;1;
NILO AUGUSTO DA SILVA;novauniaomg@uol.com.br;1;
NILSON GOMES DE MENEZES;nilson@transac.com.br;1;
NILSON PEREIRA DA SILVA;nilsongo@primaveradiesel.com.br;1;
NILTON JADER DE SOUSA;nilton.sousa@brasoftware.com.br;1;
NOBERT BAUM;n.baum@helmag.com;1;
O. P. GUPTA;opgupta@dscl.com;1;
ODAIR PEREIRA;odair.arogas@hotmail.com;1;
OLCINIO SANTOS VIEIRA;olcinio.vieira@br.bureauveritas.com;1;
ORDALIA N. SEGALOVICH;ordalia@debernt.com.br;1;
ORLANDO BARBOSA;orlando.barbosa@dislubequador.com.br;1;
OTAVIO JUNQUEIRA MOTTA LUIZ;otavio@uag.com.br;1;
PABLO ZILLI;pzilli@czarnikow.com;1;
PASQUAL M. A. MICALI;pasqual.micali@biobrasilsa.com.br;1;
PATRICE BOUGAULT;patrice_bougault@cargill.com;1;
PATRICIA BLAUTH;menoslixo@menoslixo.com.br;1;
PATRICIA DELANHESE MASON;patidelanhese@hotmail.com;1;
PATRICIA GAVALDAO;patriciagavaldao@thisisnoble.com;1;
PATRICIA MORETTI;patricia@maosearte.com.br;1;
PATRICK SOUZA;patrick.souza@ale.com.br;1;
PATRICK WOODYATT;pwoodyatt@lasingtradegroup.com;1;
PAUL KLEIN;klein@verticaluk.com;1;
PAULA ROBERTA SANTOS;paula@valedoverdao.com.br;1;
PAULO BACELAR;paulobacelar@laferlins.com.br;1;
PAULO CESAR PEREIRA BRITO;logistica@usinagoianesia.com.br;1;
PAULO ETCHICHURY;paulo@met.com.br;1;
PAULO EVANGELISTA;diretoria@larcopetroleo.com.br;1;
PAULO FERNANDO DE SOUZA;paulo@intercont.com.br;1;
PAULO GARCIA;paulog@ipiranga.com.br;1;
PAULO HENRIQUE ALVES MELO;paulohenrique@federalpetroleo.com.br;1;
PAULO MACHADO;paulo.machado@bp.com;1;
PAULO OLIVEIRA;paulo.oliveira@ironmountain.com.br;1;
PAULO ROGERIO MARCONDES;paulo@zeal.com.br;1;
PAULO SERGIO MENDES;paulo@petrozara.com.br;1;
PEDRO COZZA;pedro_cozza@hotmail.com;1;
PEDRO LUIZ CASTELO;castelo@petroamazoon.com.br;1;
PER CARSTEDT;per.carstedt@sekab.com;1;
PETER COXON;pcoxon@ckor.com;1;
PIERO MINARDI;pminardi@gaveainvest.com.br;1;
PIERRE BARON;pbaron@lasingtradegroup.com;1;
PLINIO BECARE HENRIQUE;kleber@kptecnologia.com.br;1;
POLLYANA DE FRANCA ROCHA;pollyana.rocha@bunge.com;1;
PRATEEK TIWARI;prateek.tiwari@bunge.com;1;
PRATIK VORA;pratik.vora@renukadmcc.com;1;
PRENDSON CORREIA;prendson@settacombustiveis.com.br;1;
PRISCILA ARAUJO;pcaraujo@transitbrasil.com.br;1;
PRISCILA T. SANTANA;priscila.santana@gvt.com.br;1;
RACHEL RODRIGUES;rachel.rodrigues@agrofield.com.br;1;
RAF AVINER;raf@kolmar-us.com;1;
RAFAEL BARNA;rafael.barna@chsinc.com;1;
RAFAEL CRESTANA;rafael.crestana@intfcstone.com;1;
RAFAEL SANTOS;rafael.santos@trtec.com.br;1;
RAFAEL TONON;rafael.tonon@tononbioenergia.com.br;1;
RAJESH DHINGRA;rdhingra@mawanasugars.com;1;
RAMON ANTONIO COSTA DE ANDRADE;ramon@intercont.com.br;1;
RANCE FROMME;rance.fromme@oiltanking.com;1;
RANDALL LUDDEN;investor_relations@ckor.com;1;
RANJITSINH MOHITE PATIL;info@ethanolindia.net;1;
RAPHAEL MONTEIRO MOCCI BEJAR;raphaservice@hotmail.com;1;
RAUL DU PARQUEOU;raul@novagalia.com.br;1;
REGIS AUGUSTO DA SILVA;novauniaodf@uol.com.br;1;
RENATA ESTEVAO GONCALO;rgoncalo@timbrasil.com.br;1;
RENATA RUIZ;renata.arriero@euroseg.com.br;1;
RENATO AUGUSTO PONTES CUNHA;rcunha@sindacucar.com.br;1;
RENATO BERNARDO;renato.bernardo@ale.com.br;1;
RENATO BURANELLO;renato@buranello.com.br;1;
RENATO CANUTO;renatocanuto@federalpetroleo.com.br;1;
RENATO DE SOUZA;uscaiapo@uol.com.br;1;
RENATO GUASTELLA;renato.guastella@flora.com.br;1;
RENATO JOSE TONON FILHO;renato.tonon@tononbioenergia.com.br;1;
RENE WALTER KROGER;rene@dcoil.com.br;1;
RICADO LISBOA VIANNA SINDESTADO RJ;sindestado@sindestado.com.br;1;
RICARDO CAMUSSI;ricardo.camussi@odebrecht.com;1;
RICARDO DALTO;ricardo.dalto@mansugar.com.br;1;
RICARDO MARTINS JUNQUEIRA;rj@usinadiana.com.br;1;
RICARDO NEINS;ron@petrojam.com;1;
RICARDO NOGUEIRA;ricardo.nogueira@fcstone.com;1;
RICARDO PINTO;ricardo@rpaconsultoria.com.br;1;
RICARDO RODRIGUES MENEZES;ricardo@globalcombustiveis.com.br;1;
RICHARD GAERTNER;richardpdl@terra.com.br;1;
RICHARD NICOLAS DE JARDIN;rjardin@comgas.com.br;1;
RINALDO MARQUES;rinaldo@transriologistica.com.br;1;
RIVALDO CARLOS DE CARVALHO;rivaldo@zeal.com.br;1;
ROB JEWEL;rbj@tri-starenergy.com;1;
ROBERT A. SHARP JR;robert_sharp@platts.com;1;
ROBERT FLETCHER;rfletche@arb.ca.gov;1;
ROBERT STEIJNTJES;robert@oilbiz.com.br;1;
ROBERTA CICIVIZZO LAZAROV;roberta@maosearte.com.br;1;
ROBERTA MINILO;roberta@bioagencia.com.br;1;
ROBERTO ANTONIO OLIVEIRA;supersol@triang.com.br;1;
ROBERTO FERREIRA;dasilvaj@pdvsa.com;1;
ROBERTO FINOCCHI;rfinocchi@geonetholdings.com;1;
ROBERTO FREGONESE;diretoria.sindi@sindicombustiveis-pr.com.br;1;
ROBERTO KENJI IWAO;roberto.kenji@hirobras.com.br;1;
ROBSON L. FREITAS;robson@digitalway.com.br;1;
ROBSON SANTOS BELLE;robsonb@ipiranga.com.br;1;
RODMILSON ANTONIO CANOVA;financeiro@usinasaopaulo.ind.br;1;
RODRIGO BORGES;douglas@usinafloresta.com.br;1;
RODRIGO COSTA DE ANDRADE;rodrigo@intercont.com.br;1;
RODRIGO CUZZI;rodrigo@grycamp.com.br;1;
RODRIGO DE FREITAS LAGE;rflage@valedosaosimao.com.br;1;
RODRIGO PAOLINE;rodrigoalchois@terra.com.br;1;
ROGER J. LISTENBERGER;rjlistenberger@frontiernet.net;1;
ROGER REGHIN;roger@intrachat.com.br;1;
ROGERIO F.S.CARDOSO;rogerio@ruff.com.br;1;
ROGERIO FAD;supersol@triang.com.br;1;
RON BENNINK;ron.bennink@corelab.com;1;
RON BOTTERWECK;rbotter@citgo.com;1;
RONALD SILVA;ronaldo.silva@feraenergia.com.br;1;
RONALDO MESQUITA;ronaldo.mesquita@odebrecht.com;1;
ROSANGELA DE OLIVEIRA SANTOS;oliveira_rosantos@hotmail.com;1;
ROSANGELA L. FREITAS;rosangela@digitalway.com.br;1;
RYAN CASSENS;ryan.cassens@shell.com;1;
S G MOKASHI;mokashi@somaiya.com;1;
S. FABRIZIO ZICHICHI;fabrizio.zichichi@morganstanley.com;1;
S. KRISHNAMURTHY;s.krishnamurthy@renukasugars.com;1;
SABRINA NEVES DE PAULA;sabrina.neves@usinaitapagipe.com.br;1;
SALVADOR DE VITO;salvador@rodomatsuda.com.br;1;
SAMIR SOMAIYA;samir@somaiya.com;1;
SANDOVAL RODRIGUES DA MATTA;srmatta@globo.com;1;
SANDRA MENDES;smendes@usinagoianesia.com.br;1;
SATISH KANSAL;skansal@mawanasugars.com;1;
SEAN O?HANLON;sohanlon@americanbiofuelscouncil.com;1;
SERGIO ADRIANO ZANOVELO;sergio@gigantedistribuidora.com.br;1;
SERGIO BARROS;sergio.barros@usda.gov;1;
SERGIO C. TRINDADE;strindade@alum.mit.edu;1;
SERGIO DUTRA;sergio.dutra@denusa.com.br;1;
SERGIO FONSECA LINS;sergio@dislub.com;1;
SERGIO GROBA;sergio.groba@grupopaodeacucar.com.br;1;
SERGIO PRADO;sergiorp@unica.com.br;1;
SERGIO ROBERTO FIORAVANTE;diretoria@dacalda.com.br;1;
SERGIO SUKORKI JUNIOR;sergio.jr@intercont.com.br;1;
SHIRLEY FERREIRA DA SILVA;suporte@zeal.com.br;1;
SHOICHI ICHIHARA;shoichi.ichihara@sumitomocorp.co.jp;1;
SHUZO KATO;kato-s@itochu.co.jp;1;
SIDNEY NATAL SANTOS;diretoria@transls.com.br;1;
SILVANO COATIO CAETANO DA SILVA;silvano@globalcombustiveis.com.br;1;
SOLANGE APARECIDA MENDONCA;solange@intercont.com.br;1;
SONIA REGINA CONCEICAO TORRES;sonia@tabocao.com.br;1;
STAVROS DIMOPOULOS;sdimopoulos@sucden.ch;1;
STEPHANIE ROVEDA;smfr@chevron.com;1;
STEPHEN BURNS;stephen.burns@icis.com;1;
STEPHEN D. SIMON;stephen@harvestenergy.co.uk;1;
STIG-GUNNAR ERIKSSON;stig-gunnar.eriksson@sekab.com;1;
SUNIL RADHAKRISHNA;sunil@dscl.com;1;
SUZANA HIPOLITO;shipolito@exacttarget.com;1;
TAIANE GENTIL ROCHA;taiane@acolpetroleo.com.br;1;
TAIS DA SILVA BARATA;financeiro@zeal.com.br;1;
TAMMY KLEIN;ifc@ifc.org;1;
TATIANE DE SOUZA;tatiane@intercont.com.br;1;
TATIANE SECCOLI BUFO;financeiro5@usinasaopaulo.ind.br;1;
THAIS RODRIGUES;thais@procana.com.br;1;
THAIZ ALVES;transls2011@hotmail.com;1;
THIAGO ATHAYDE BRISO;thiago.brisol@ldcom.com;1;
THIAGO GIL;thiago.gil@fcstone.com;1;
THIAGO MEDEIROS;tmedeiros@czarnikow.com;1;
THIAGO PEREIRA SOUZA;tpsouza@goiasa.com.br;1;
THIAGO TERZI;thiago.terzi@datagro.com.br;1;
TIAGO BRANDAO;tiago_h@hotmail.com.br;1;
TIAGO MATTA;tiagomatta@hotmail.com;1;
TIAGO MUNIZ DOS SANTOS;tiago.santos@biobrasil.com.br;1;
TIAGO RESENDE;tiagogo@primaveradiesel.com.br;1;
TIMOTHY R. MITCHELL;tmitchell@tristartransport.com;1;
TODD KRUGGEL;toddk@rpmgllc.com;1;
TOM APPLEBY;tom.appleby@bp.com;1;
TONY ALLEN;t.allen@energisebv.com;1;
UELITON BALTAZAR CAETANO;ueliton@globalcombustiveis.com.br;1;
VALDECI RIBEIRO GUIMARAES;valdeci@zeal.com.br;1;
VALDECIR CASTRO;valdecir@ipiranga.com.br;1;
VALDEMAR DE BORTOLI JUNIOR;junior@redesoldp.com.br;1;
VALDENIR SECOLO;taffaturamento@gmail.com;1;
VALDIR FRANCISCO;vaelitransportes@gmail.com;1;
VALERIO MACHADO CAMELO;compras@simoncomercial.com.br;1;
VANDA NUNES;vanda.nunes@sgs.com;1;
VANDA SOUZA LINO;faturamento@adlogistica.com.br;1;
VANDERLEI BASTOS;vanderlei@petroamazon.com.br;1;
VANDERLEI SILVA;vpsilva@ipiranga.com.br;1;
VANDERLEI ZOPPELLO;vanderleiz@bf.com.br;1;
VANESSA GOMES;vanessa.gomes@usmoema.com.br;1;
VANIA SOUSA;vania@transjordano.com.br;1;
VICTOR MENDES;victor@petrozara.com.br;1;
VIJAY AUTADE;vijay@shahusugar.com;1;
VIMAL KULSHRESTHA;v_kulshrestha@jubl.com;1;
VINAY V JOSHI;vvjoshi@somaiya.com;1;
VINICIUS OLIVEIRA DE SOUZA;williamslineup@williams.com.br;1;
VIVIAN REGINA BIANCHI CAMPOS;vivian.campos@raizen.com;1;
VIVIANE GURGEL;viviane.gurgel@bp.com;1;
VIVIANE TONELI;viviane.toneli@tononbioenergia.com.br;1;
VUK WANDERLEI ILIC;diretoria@usinasaopaulo.ind.br;1;
WALBER CORREA;transls.transportes@hotmail.com;1;
WALDEMAR DECCACHE;waldemar@deccache.com.br;1;
WALDIR FERREIRA DE CARVALHO;waldir@intercont.com.br;1;
WALFREDO DE A. LINHARES;wlinhares@solazyme.com;1;
WALLACE OLIVEIRA;wallace.oliveira@ale.com.br;1;
WALMES LIMA;walmes@decal.com.br;1;
WALTER NATTERER;wnatterer@overseas.com.br;1;
WALTER WENDLAND;info@ggecorn.com;1;
WELDER ALVES;vaelitransportes@gmail.com;1;
WELLIGTON PAIVA;wellington.paiva@denusa.com.br;1;
WENDEL CASTRO;wendel.castro@flora.com.br;1;
WENDEL CELESTINO;wendel.celestino@bp.com;1;
WILLIAM DA COSTA;william.costa@trtec.com.br;1;
WILLIAM P. LEMOS;william.lemos@icis.com;1;
WILLIAN GUI;vetor@vetorcombustiveis.brte.com.br;1;
WILSON HELIO DE ALBUQUERQUE PINHEIRO;wilsonpinheiro53@gmail.com;1;
YLWA ALWARSDOTTER;ylwa.alwarsdotter@sekab.com;1;
YVES SOUDAN;yves.soudan@northseagroup.com;1;
ZAMAS PEREIRA DA SILVA;scanedo@ubppetroleo.com.br;1;
